<?xml version="1.0" encoding="UTF-8"?>
<session version="1.0">
<refactoring comment="Delete resource &apos;JenaPlug-in&apos;" deleteContents="false" description="Delete resource &apos;JenaPlug-in&apos;" element1="/JenaPlug-in" flags="7" id="org.eclipse.ltk.core.refactoring.delete.resources" resources="1" stamp="1492601267507"/>
</session>