<?xml version="1.0" encoding="UTF-8"?>
<session version="1.0">
<refactoring comment="Copy element &apos;ReasonerFactoryImpl.java&apos; to &apos;aReasoner/src/HermiT&apos;&#x0D;&#x0A;- Original project: &apos;org.ibcn.trapist.tools.reasoning.provider&apos;&#x0D;&#x0A;- Destination element: &apos;aReasoner/src/HermiT&apos;&#x0D;&#x0A;- Original element: &apos;org.ibcn.trapist.tools.reasoning.provider.impl.ReasonerFactoryImpl.java&apos;" description="Copy compilation unit" destination="=aReasoner/src&lt;HermiT" element1="/src&lt;org.ibcn.trapist.tools.reasoning.provider.impl{ReasonerFactoryImpl.java" files="0" flags="589830" folders="0" id="org.eclipse.jdt.ui.copy" policy="org.eclipse.jdt.ui.copyResources" stamp="1491498543772" units="1" version="1.0"/>
</session>